…
> d <- d[studyid=="WASH-BK", studyid := "WASH-Kenya"]
> d <- d[studyid=="Respak", studyid := "ResPak"]
> d <- d[studyid=="ILINS-Zinc", studyid := "iLiNS-Zinc"]
> d <- d[studyid=="GMS-Nepal-201606", studyid := "GMS-Nepal"]
> d <- d[studyid=="BurkinaFasoZn", studyid := "Burkina Faso Zn"]
> d <- d[studyid=="ILINS-DOSE", studyid := "iLiNS-DOSE"]
> d <- d[studyid=="ILINS-DYAD-M", studyid := "iLiNS-DYAD-M"]
> 
> 
> 
> 
> 
> #Check measurement frequency
> d %>% filter(!is.na(waz)|!is.na(haz)) %>% group_by(studyid, country, subjid) %>% mutate(lagage=agedays-lag(agedays)) %>% group_by(studyid) %>% summarize(mn=mean(lagage,na.rm=T), md=median(lagage,na.rm=T))
# A tibble: 38 x 3
   studyid               mn    md
   <chr>              <dbl> <dbl>
 1 AgaKhanUniv        174.    162
 2 Burkina Faso Zn    132.    112
 3 CMC-V-BCS-2002      30.5    30
 4 CMIN Bangladesh93   33.4    31
 5 CMIN Brazil89       97.6    91
 6 CMIN GB94           87.4    70
 7 CMIN Peru89         36.4    30
 8 CMIN Peru95         33.2    31
 9 COHORTS           1240.    684
10 CONTENT             17.3    14
# … with 28 more rows
…
