…
+     nchild=length(unique(subjid)),
+     newly_stunted = mean(newly_stunted, na.rm = TRUE),
+     still_stunted = mean(still_stunted, na.rm = TRUE),
+     recover = mean(recover, na.rm = TRUE),
+     not_stunted = mean(not_stunted, na.rm = TRUE),
+     never_stunted = mean(never_stunted, na.rm = TRUE),
+     relapse = mean(relapse, na.rm = TRUE))
`summarise()` ungrouping output (override with `.groups` argument)
> 
> summary = summary %>%
+   mutate(sum = still_stunted + newly_stunted + recover + 
+            never_stunted + not_stunted + relapse)
> 
> summary
# A tibble: 25 x 9
    agem nchild newly_stunted still_stunted recover not_stunted never_stunted
   <dbl>  <int>         <dbl>         <dbl>   <dbl>       <dbl>         <dbl>
 1     0   2596        0.144         0       0           0              0.856
 2     1   5343        0.0934        0.0495  0.0274      0              0.830
 3     2   5524        0.0654        0.0899  0.0404      0.0189         0.780
 4     3   5498        0.0405        0.106   0.0481      0.0426         0.749
 5     4   5542        0.0349        0.110   0.0440      0.0671         0.725
 6     5   5231        0.0347        0.121   0.0425      0.0881         0.696
 7     6   5412        0.0321        0.127   0.0413      0.104          0.673
 8     7   5146        0.0291        0.142   0.0402      0.119          0.647
 9     8   5083        0.0268        0.153   0.0347      0.128          0.628
10     9   4939        0.0228        0.176   0.0322      0.137          0.602
# … with 15 more rows, and 2 more variables: relapse <dbl>, sum <dbl>
…
