…
> 
> 
> #Incidence rate
> ir.data <- summary.ir(d)
`summarise()` ungrouping output (override with `.groups` argument)
# A tibble: 5 x 4
  agecat       inc.case     ptar cruderate
  <fct>           <dbl>    <dbl>     <dbl>
1 0-6 months       2427 1258466   0.00193 
2 6-12 months      1326 1438328   0.000922
3 12-18 months      987 1223366.  0.000807
4 18-24 months      710 1081632.  0.000656
5 <NA>              548 1702955   0.000322
`summarise()` regrouping output by 'studyid', 'country' (override with `.groups` argument)
# A tibble: 78 x 7
# Groups:   studyid, country [20]
   studyid           country    agecat         ptar ncase nchild nstudy
   <chr>             <chr>      <fct>         <dbl> <dbl>  <int>  <int>
 1 CMC-V-BCS-2002    INDIA      0-6 months   39740    201    368      1
 2 CMC-V-BCS-2002    INDIA      6-12 months  54754     66    372      1
 3 CMC-V-BCS-2002    INDIA      12-18 months 58134.    34    373      1
 4 CMC-V-BCS-2002    INDIA      18-24 months 61138.    23    373      1
 5 CMIN Bangladesh93 BANGLADESH 0-6 months   35058.    52    272      1
 6 CMIN Bangladesh93 BANGLADESH 6-12 months  40490.    56    252      1
 7 CMIN Bangladesh93 BANGLADESH 12-18 months 36807     43    250      1
 8 CMIN Bangladesh93 BANGLADESH 18-24 months 37222.    39    247      1
 9 CMIN Peru89       PERU       0-6 months   29156.     4    209      1
10 CMIN Peru89       PERU       6-12 months  32658      2    195      1
# … with 68 more rows
…
13 TanzaniaChil… TANZANIA, UNITED REPUBL… 0-6 months  3.13e5   340   2396      1
14 TanzaniaChil… TANZANIA, UNITED REPUBL… 6-12 months 2.88e5   210   1996      1
15 TanzaniaChil… TANZANIA, UNITED REPUBL… 12-18 mont… 2.13e5   139   1455      1
16 TanzaniaChil… TANZANIA, UNITED REPUBL… 18-24 mont… 4.85e4    24    960      1
`summarise()` ungrouping output (override with `.groups` argument)
# A tibble: 5 x 4
  agecat       inc.case    ptar cruderate
  <fct>           <dbl>   <dbl>     <dbl>
1 0-6 months       1264 376310.  0.00336 
2 6-12 months       553 465527   0.00119 
3 12-18 months      480 423556.  0.00113 
4 18-24 months      353 406512.  0.000868
5 <NA>              358 886815   0.000404
`summarise()` regrouping output by 'studyid', 'country' (override with `.groups` argument)
# A tibble: 39 x 7
# Groups:   studyid, country [10]
   studyid           country    agecat         ptar ncase nchild nstudy
   <chr>             <chr>      <fct>         <dbl> <dbl>  <int>  <int>
 1 CMC-V-BCS-2002    INDIA      0-6 months   39740    201    368      1
 2 CMC-V-BCS-2002    INDIA      6-12 months  54754     66    372      1
 3 CMC-V-BCS-2002    INDIA      12-18 months 58134.    34    373      1
 4 CMC-V-BCS-2002    INDIA      18-24 months 61138.    23    373      1
 5 CMIN Bangladesh93 BANGLADESH 0-6 months   35058.    52    272      1
 6 CMIN Bangladesh93 BANGLADESH 6-12 months  40490.    56    252      1
 7 CMIN Bangladesh93 BANGLADESH 12-18 months 36807     43    250      1
 8 CMIN Bangladesh93 BANGLADESH 18-24 months 37222.    39    247      1
 9 EE                PAKISTAN   0-6 months   47991    127    380      1
10 EE                PAKISTAN   6-12 months  55494.    62    374      1
# … with 29 more rows
`summarise()` ungrouping output (override with `.groups` argument)
# A tibble: 5 x 4
  agecat       inc.case    ptar cruderate
  <fct>           <dbl>   <dbl>     <dbl>
1 0-6 months         49 207526. 0.000236 
2 6-12 months        35 240255  0.000146 
3 12-18 months       22 176921  0.000124 
4 18-24 months       15 141577  0.000106 
5 <NA>               10 273339  0.0000366
`summarise()` regrouping output by 'studyid', 'country' (override with `.groups` argument)
# A tibble: 23 x 7
# Groups:   studyid, country [6]
   studyid     country agecat         ptar ncase nchild nstudy
   <chr>       <chr>   <fct>         <dbl> <dbl>  <int>  <int>
 1 CMIN Peru89 PERU    0-6 months   29156.     4    209      1
 2 CMIN Peru89 PERU    6-12 months  32658      2    195      1
 3 CMIN Peru89 PERU    12-18 months 23220.     1    148      1
 4 CMIN Peru89 PERU    18-24 months 12751      0     87      1
 5 CMIN Peru95 PERU    0-6 months   32457      5    224      1
 6 CMIN Peru95 PERU    6-12 months  37916.     2    223      1
 7 CMIN Peru95 PERU    12-18 months 31373      1    180      1
 8 CMIN Peru95 PERU    18-24 months 26138      2    159      1
 9 CONTENT     PERU    0-6 months   34982.     4    215      1
10 CONTENT     PERU    6-12 months  40798.     0    215      1
# … with 13 more rows
…
+ )
> 
> #Incidence rate - no birth wasting
> ir.data.nobirth <- summary.ir(d_noBW)
`summarise()` ungrouping output (override with `.groups` argument)
# A tibble: 5 x 4
  agecat       inc.case     ptar cruderate
  <fct>           <dbl>    <dbl>     <dbl>
1 0-6 months       1184 1248174.  0.000949
2 6-12 months      1305 1435473   0.000909
3 12-18 months      966 1218562.  0.000793
4 18-24 months      700 1078332   0.000649
5 <NA>              541 1700310.  0.000318
`summarise()` regrouping output by 'studyid', 'country' (override with `.groups` argument)
# A tibble: 78 x 7
# Groups:   studyid, country [20]
   studyid           country    agecat         ptar ncase nchild nstudy
   <chr>             <chr>      <fct>         <dbl> <dbl>  <int>  <int>
 1 CMC-V-BCS-2002    INDIA      0-6 months   38288.   110    368      1
 2 CMC-V-BCS-2002    INDIA      6-12 months  54754     66    372      1
 3 CMC-V-BCS-2002    INDIA      12-18 months 58134.    34    373      1
 4 CMC-V-BCS-2002    INDIA      18-24 months 61138.    23    373      1
 5 CMIN Bangladesh93 BANGLADESH 0-6 months   34766     32    272      1
 6 CMIN Bangladesh93 BANGLADESH 6-12 months  40490.    56    252      1
 7 CMIN Bangladesh93 BANGLADESH 12-18 months 36807     43    250      1
 8 CMIN Bangladesh93 BANGLADESH 18-24 months 37222.    39    247      1
 9 CMIN Peru89       PERU       0-6 months   29120      1    209      1
10 CMIN Peru89       PERU       6-12 months  32658      2    195      1
# … with 68 more rows
…
13 TanzaniaChil… TANZANIA, UNITED REPUBL… 0-6 months  3.10e5   204   2396      1
14 TanzaniaChil… TANZANIA, UNITED REPUBL… 6-12 months 2.88e5   210   1996      1
15 TanzaniaChil… TANZANIA, UNITED REPUBL… 12-18 mont… 2.13e5   139   1455      1
16 TanzaniaChil… TANZANIA, UNITED REPUBL… 18-24 mont… 4.85e4    24    960      1
`summarise()` ungrouping output (override with `.groups` argument)
# A tibble: 5 x 4
  agecat       inc.case    ptar cruderate
  <fct>           <dbl>   <dbl>     <dbl>
1 0-6 months        648 371527   0.00174 
2 6-12 months       553 465527   0.00119 
3 12-18 months      480 423556.  0.00113 
4 18-24 months      353 406512.  0.000868
5 <NA>              358 886815   0.000404
`summarise()` regrouping output by 'studyid', 'country' (override with `.groups` argument)
# A tibble: 39 x 7
# Groups:   studyid, country [10]
   studyid           country    agecat         ptar ncase nchild nstudy
   <chr>             <chr>      <fct>         <dbl> <dbl>  <int>  <int>
 1 CMC-V-BCS-2002    INDIA      0-6 months   38288.   110    368      1
 2 CMC-V-BCS-2002    INDIA      6-12 months  54754     66    372      1
 3 CMC-V-BCS-2002    INDIA      12-18 months 58134.    34    373      1
 4 CMC-V-BCS-2002    INDIA      18-24 months 61138.    23    373      1
 5 CMIN Bangladesh93 BANGLADESH 0-6 months   34766     32    272      1
 6 CMIN Bangladesh93 BANGLADESH 6-12 months  40490.    56    252      1
 7 CMIN Bangladesh93 BANGLADESH 12-18 months 36807     43    250      1
 8 CMIN Bangladesh93 BANGLADESH 18-24 months 37222.    39    247      1
 9 EE                PAKISTAN   0-6 months   47767     83    380      1
10 EE                PAKISTAN   6-12 months  55494.    62    374      1
# … with 29 more rows
`summarise()` ungrouping output (override with `.groups` argument)
# A tibble: 5 x 4
  agecat       inc.case    ptar cruderate
  <fct>           <dbl>   <dbl>     <dbl>
1 0-6 months         24 206999  0.000116 
2 6-12 months        34 240154. 0.000142 
3 12-18 months       22 176921  0.000124 
4 18-24 months       15 141577  0.000106 
5 <NA>               10 273339  0.0000366
`summarise()` regrouping output by 'studyid', 'country' (override with `.groups` argument)
# A tibble: 23 x 7
# Groups:   studyid, country [6]
   studyid     country agecat         ptar ncase nchild nstudy
   <chr>       <chr>   <fct>         <dbl> <dbl>  <int>  <int>
 1 CMIN Peru89 PERU    0-6 months   29120      1    209      1
 2 CMIN Peru89 PERU    6-12 months  32658      2    195      1
 3 CMIN Peru89 PERU    12-18 months 23220.     1    148      1
 4 CMIN Peru89 PERU    18-24 months 12751      0     87      1
 5 CMIN Peru95 PERU    0-6 months   32401      2    224      1
 6 CMIN Peru95 PERU    6-12 months  37916.     2    223      1
 7 CMIN Peru95 PERU    12-18 months 31373      1    180      1
 8 CMIN Peru95 PERU    18-24 months 26138      2    159      1
 9 CONTENT     PERU    0-6 months   34970.     3    215      1
10 CONTENT     PERU    6-12 months  40798.     0    215      1
# … with 13 more rows
…
+ )
> 
> #Incidence rate - severe wasting
> sev.ir.data <- summary.ir(d, sev.wasting = T)
`summarise()` ungrouping output (override with `.groups` argument)
# A tibble: 5 x 4
  agecat       inc.case    ptar cruderate
  <fct>           <dbl>   <dbl>     <dbl>
1 0-6 months        771 1383246 0.000557 
2 6-12 months       349 1559382 0.000224 
3 12-18 months      270 1351406 0.000200 
4 18-24 months      158 1177634 0.000134 
5 <NA>               93 1786355 0.0000521
`summarise()` regrouping output by 'studyid', 'country' (override with `.groups` argument)
# A tibble: 78 x 7
# Groups:   studyid, country [20]
   studyid           country    agecat         ptar ncase nchild nstudy
   <chr>             <chr>      <fct>         <dbl> <dbl>  <int>  <int>
 1 CMC-V-BCS-2002    INDIA      0-6 months   51274.    67    368      1
 2 CMC-V-BCS-2002    INDIA      6-12 months  64238.    18    372      1
 3 CMC-V-BCS-2002    INDIA      12-18 months 65014.     9    373      1
 4 CMC-V-BCS-2002    INDIA      18-24 months 65585      5    373      1
 5 CMIN Bangladesh93 BANGLADESH 0-6 months   37178.    14    272      1
 6 CMIN Bangladesh93 BANGLADESH 6-12 months  45040.    12    252      1
 7 CMIN Bangladesh93 BANGLADESH 12-18 months 42838.     5    250      1
 8 CMIN Bangladesh93 BANGLADESH 18-24 months 43509     13    247      1
 9 CMIN Peru89       PERU       0-6 months   29380.     2    209      1
10 CMIN Peru89       PERU       6-12 months  32812.     0    195      1
# … with 68 more rows
…
13 TanzaniaChil… TANZANIA, UNITED REPUBL… 0-6 months  3.31e5    79   2396      1
14 TanzaniaChil… TANZANIA, UNITED REPUBL… 6-12 months 3.10e5    48   1996      1
15 TanzaniaChil… TANZANIA, UNITED REPUBL… 12-18 mont… 2.28e5    28   1455      1
16 TanzaniaChil… TANZANIA, UNITED REPUBL… 18-24 mont… 5.15e4     9    960      1
`summarise()` ungrouping output (override with `.groups` argument)
# A tibble: 5 x 4
  agecat       inc.case    ptar cruderate
  <fct>           <dbl>   <dbl>     <dbl>
1 0-6 months        438 444430. 0.000986 
2 6-12 months       135 527500. 0.000256 
3 12-18 months      131 499720  0.000262 
4 18-24 months       68 467603  0.000145 
5 <NA>               37 953438. 0.0000388
`summarise()` regrouping output by 'studyid', 'country' (override with `.groups` argument)
# A tibble: 39 x 7
# Groups:   studyid, country [10]
   studyid           country    agecat         ptar ncase nchild nstudy
   <chr>             <chr>      <fct>         <dbl> <dbl>  <int>  <int>
 1 CMC-V-BCS-2002    INDIA      0-6 months   51274.    67    368      1
 2 CMC-V-BCS-2002    INDIA      6-12 months  64238.    18    372      1
 3 CMC-V-BCS-2002    INDIA      12-18 months 65014.     9    373      1
 4 CMC-V-BCS-2002    INDIA      18-24 months 65585      5    373      1
 5 CMIN Bangladesh93 BANGLADESH 0-6 months   37178.    14    272      1
 6 CMIN Bangladesh93 BANGLADESH 6-12 months  45040.    12    252      1
 7 CMIN Bangladesh93 BANGLADESH 12-18 months 42838.     5    250      1
 8 CMIN Bangladesh93 BANGLADESH 18-24 months 43509     13    247      1
 9 EE                PAKISTAN   0-6 months   54408     36    380      1
10 EE                PAKISTAN   6-12 months  64780     18    374      1
# … with 29 more rows
`summarise()` ungrouping output (override with `.groups` argument)
# A tibble: 5 x 4
  agecat       inc.case    ptar  cruderate
  <fct>           <dbl>   <dbl>      <dbl>
1 0-6 months          9 209672  0.0000429 
2 6-12 months         3 242395  0.0000124 
3 12-18 months        1 179214. 0.00000558
4 18-24 months        2 143422. 0.0000139 
5 <NA>                2 276146. 0.00000724
`summarise()` regrouping output by 'studyid', 'country' (override with `.groups` argument)
# A tibble: 23 x 7
# Groups:   studyid, country [6]
   studyid     country agecat         ptar ncase nchild nstudy
   <chr>       <chr>   <fct>         <dbl> <dbl>  <int>  <int>
 1 CMIN Peru89 PERU    0-6 months   29380.     2    209      1
 2 CMIN Peru89 PERU    6-12 months  32812.     0    195      1
 3 CMIN Peru89 PERU    12-18 months 23252      0    148      1
 4 CMIN Peru89 PERU    18-24 months 12751      0     87      1
 5 CMIN Peru95 PERU    0-6 months   32648.     1    224      1
 6 CMIN Peru95 PERU    6-12 months  38030.     0    223      1
 7 CMIN Peru95 PERU    12-18 months 31436.     0    180      1
 8 CMIN Peru95 PERU    18-24 months 26240.     0    159      1
 9 CONTENT     PERU    0-6 months   35176      1    215      1
10 CONTENT     PERU    6-12 months  40928.     0    215      1
# … with 13 more rows
…
`summarise()` ungrouping output (override with `.groups` argument)
# A tibble: 9 x 4
  agecat       inc.case     ptar cruderate
  <fct>           <dbl>    <dbl>     <dbl>
1 0-3 months       1795  482700.  0.00372 
2 3-6 months        632  775766.  0.000815
3 6-9 months        643  754730.  0.000852
4 9-12 months       683  683598.  0.000999
5 12-15 months      536  607016.  0.000883
6 15-18 months      451  616350   0.000732
7 18-21 months      381  563482.  0.000676
8 21-24 months      329  518150   0.000635
9 <NA>              548 1702955   0.000322
`summarise()` regrouping output by 'studyid', 'country' (override with `.groups` argument)
# A tibble: 155 x 7
# Groups:   studyid, country [20]
   studyid           country    agecat         ptar ncase nchild nstudy
   <chr>             <chr>      <fct>         <dbl> <dbl>  <int>  <int>
 1 CMC-V-BCS-2002    INDIA      0-3 months   17142.   155    362      1
 2 CMC-V-BCS-2002    INDIA      3-6 months   22598.    46    366      1
 3 CMC-V-BCS-2002    INDIA      6-9 months   26650.    35    371      1
 4 CMC-V-BCS-2002    INDIA      9-12 months  28104.    31    370      1
 5 CMC-V-BCS-2002    INDIA      12-15 months 28862.    19    371      1
 6 CMC-V-BCS-2002    INDIA      15-18 months 29272     15    371      1
 7 CMC-V-BCS-2002    INDIA      18-21 months 29886.    13    372      1
 8 CMC-V-BCS-2002    INDIA      21-24 months 31252     10    371      1
 9 CMIN Bangladesh93 BANGLADESH 0-3 months   13480.    28    264      1
10 CMIN Bangladesh93 BANGLADESH 3-6 months   21579     24    259      1
# … with 145 more rows
…
`summarise()` ungrouping output (override with `.groups` argument)
# A tibble: 9 x 4
  agecat       inc.case    ptar cruderate
  <fct>           <dbl>   <dbl>     <dbl>
1 0-3 months        782 266688.  0.00293 
2 3-6 months        332 407940.  0.000814
3 6-9 months        394 399930   0.000985
4 9-12 months       344 332616   0.00103 
5 12-15 months      257 295144   0.000871
6 15-18 months      228 327745   0.000696
7 18-21 months      185 288496   0.000641
8 21-24 months      157 245046   0.000641
9 <NA>              180 542801   0.000332
`summarise()` regrouping output by 'studyid', 'country' (override with `.groups` argument)
# A tibble: 32 x 7
# Groups:   studyid, country [4]
   studyid country      agecat          ptar ncase nchild nstudy
   <chr>   <chr>        <fct>          <dbl> <dbl>  <int>  <int>
 1 Keneba  GAMBIA       0-3 months   111004.   552   2295      1
 2 Keneba  GAMBIA       3-6 months   174783    172   2266      1
 3 Keneba  GAMBIA       6-9 months   196108    259   2220      1
 4 Keneba  GAMBIA       9-12 months  159892.   230   2129      1
 5 Keneba  GAMBIA       12-15 months 147266.   164   1924      1
 6 Keneba  GAMBIA       15-18 months 181008.   153   1892      1
 7 Keneba  GAMBIA       18-21 months 203984.   153   1893      1
 8 Keneba  GAMBIA       21-24 months 198056.   145   1789      1
 9 MAL-ED  SOUTH AFRICA 0-3 months    15860     29    312      1
10 MAL-ED  SOUTH AFRICA 3-6 months    22070      7    271      1
# … with 22 more rows
`summarise()` ungrouping output (override with `.groups` argument)
# A tibble: 9 x 4
  agecat       inc.case    ptar cruderate
  <fct>           <dbl>   <dbl>     <dbl>
1 0-3 months        983 150804.  0.00652 
2 3-6 months        281 225507   0.00125 
3 6-9 months        235 227649   0.00103 
4 9-12 months       318 237878   0.00134 
5 12-15 months      268 216066.  0.00124 
6 15-18 months      212 207490   0.00102 
7 18-21 months      189 201454.  0.000938
8 21-24 months      164 205059   0.000800
9 <NA>              358 886815   0.000404
`summarise()` regrouping output by 'studyid', 'country' (override with `.groups` argument)
# A tibble: 78 x 7
# Groups:   studyid, country [10]
   studyid           country    agecat         ptar ncase nchild nstudy
   <chr>             <chr>      <fct>         <dbl> <dbl>  <int>  <int>
 1 CMC-V-BCS-2002    INDIA      0-3 months   17142.   155    362      1
 2 CMC-V-BCS-2002    INDIA      3-6 months   22598.    46    366      1
 3 CMC-V-BCS-2002    INDIA      6-9 months   26650.    35    371      1
 4 CMC-V-BCS-2002    INDIA      9-12 months  28104.    31    370      1
 5 CMC-V-BCS-2002    INDIA      12-15 months 28862.    19    371      1
 6 CMC-V-BCS-2002    INDIA      15-18 months 29272     15    371      1
 7 CMC-V-BCS-2002    INDIA      18-21 months 29886.    13    372      1
 8 CMC-V-BCS-2002    INDIA      21-24 months 31252     10    371      1
 9 CMIN Bangladesh93 BANGLADESH 0-3 months   13480.    28    264      1
10 CMIN Bangladesh93 BANGLADESH 3-6 months   21579     24    259      1
# … with 68 more rows
`summarise()` ungrouping output (override with `.groups` argument)
# A tibble: 9 x 4
  agecat       inc.case    ptar cruderate
  <fct>           <dbl>   <dbl>     <dbl>
1 0-3 months         30  65208. 0.000460 
2 3-6 months         19 142318  0.000134 
3 6-9 months         14 127150. 0.000110 
4 9-12 months        21 113104. 0.000186 
5 12-15 months       11  95806  0.000115 
6 15-18 months       11  81115  0.000136 
7 18-21 months        7  73532  0.0000952
8 21-24 months        8  68045  0.000118 
9 <NA>               10 273339  0.0000366
`summarise()` regrouping output by 'studyid', 'country' (override with `.groups` argument)
# A tibble: 45 x 7
# Groups:   studyid, country [6]
   studyid     country agecat         ptar ncase nchild nstudy
   <chr>       <chr>   <fct>         <dbl> <dbl>  <int>  <int>
 1 CMIN Peru89 PERU    0-3 months    9217      3    182      1
 2 CMIN Peru89 PERU    3-6 months   19938.     1    205      1
 3 CMIN Peru89 PERU    6-9 months   17078      2    191      1
 4 CMIN Peru89 PERU    9-12 months  15580      0    173      1
 5 CMIN Peru89 PERU    12-15 months 13062.     0    146      1
 6 CMIN Peru89 PERU    15-18 months 10158      1    113      1
 7 CMIN Peru89 PERU    18-21 months  7992      0     85      1
 8 CMIN Peru89 PERU    21-24 months  4759      0     54      1
 9 CMIN Peru95 PERU    0-3 months   11626.     3    220      1
10 CMIN Peru95 PERU    3-6 months   20830.     2    222      1
# … with 35 more rows
…
