…
+     stunted = mean(stunted, na.rm = TRUE),
+     wasted = mean(wasted, na.rm = TRUE),
+     underwt = mean(underwt, na.rm = TRUE),
+     wu = mean(wu, na.rm = TRUE),
+     su = mean(su, na.rm = TRUE),
+     co = mean(co, na.rm = TRUE),
+     recovered = mean(recovered, na.rm = TRUE),
+     healthy = mean(healthy, na.rm = TRUE))
> 
> summary = summary %>%
+   mutate(sum = stunted + wasted + underwt +
+            wu + su + co + recovered + healthy)
> 
> summary 
# A tibble: 25 x 12
    agem nchild     N stunted wasted underwt     wu     su      co recovered
   <dbl>  <int> <int>   <dbl>  <dbl>   <dbl>  <dbl>  <dbl>   <dbl>     <dbl>
 1     0   2529  4793  0.0480 0.114   0.0165 0.0426 0.0371 0.0115     0     
 2     1   5319  8171  0.0660 0.0487  0.0219 0.0204 0.0639 0.00967    0.0718
 3     2   5515  8479  0.0863 0.0320  0.0274 0.0190 0.0660 0.00743    0.129 
 4     3   5490  8356  0.0877 0.0266  0.0291 0.0256 0.0633 0.00874    0.166 
 5     4   5538  8453  0.0911 0.0206  0.0225 0.0290 0.0609 0.0111     0.195 
 6     5   5228  7562  0.0915 0.0192  0.0279 0.0319 0.0688 0.0132     0.203 
 7     6   5403  8260  0.0960 0.0156  0.0272 0.0324 0.0722 0.0125     0.228 
 8     7   5142  7973  0.0995 0.0151  0.0280 0.0336 0.0749 0.0192     0.240 
 9     8   5078  7650  0.103  0.0153  0.0258 0.0382 0.0817 0.0243     0.241 
10     9   4936  7433  0.112  0.0152  0.0237 0.0412 0.0862 0.0309     0.241 
# … with 15 more rows, and 2 more variables: healthy <dbl>, sum <dbl>
…
