…
> 
> 
> 
> #Incidence rate - 30 days
> ir.data <- summary.ir(d30)
# A tibble: 5 x 4
  agecat       inc.case     ptar cruderate
  <fct>           <dbl>    <dbl>     <dbl>
1 0-6 months       2580 1322563   0.00195 
2 6-12 months      1518 1488854   0.00102 
3 12-18 months     1203 1278174.  0.000941
4 18-24 months      856 1124680   0.000761
5 <NA>              639 1725451   0.000370
`summarise()` has grouped output by 'studyid', 'country'. You can override using the `.groups` argument.
# A tibble: 78 x 7
# Groups:   studyid, country [20]
   studyid           country    agecat         ptar ncase nchild nstudy
   <chr>             <chr>      <fct>         <dbl> <dbl>  <int>  <int>
 1 CMC-V-BCS-2002    INDIA      0-6 months   45858.   211    368      1
 2 CMC-V-BCS-2002    INDIA      6-12 months  59372.    79    372      1
 3 CMC-V-BCS-2002    INDIA      12-18 months 60975     40    373      1
 4 CMC-V-BCS-2002    INDIA      18-24 months 63136.    29    373      1
 5 CMIN Bangladesh93 BANGLADESH 0-6 months   36217     57    272      1
 6 CMIN Bangladesh93 BANGLADESH 6-12 months  42664.    66    252      1
 7 CMIN Bangladesh93 BANGLADESH 12-18 months 39770.    52    250      1
 8 CMIN Bangladesh93 BANGLADESH 18-24 months 40245     54    247      1
 9 CMIN Peru89       PERU       0-6 months   29304.     4    209      1
10 CMIN Peru89       PERU       6-12 months  32760.     2    195      1
# … with 68 more rows
…
12 MAL-ED         TANZANIA     18-24 months  40677     11    228      1
13 TanzaniaChild2 TANZANIA     0-6 months   322024.   356   2396      1
14 TanzaniaChild2 TANZANIA     6-12 months  296664.   236   1996      1
15 TanzaniaChild2 TANZANIA     12-18 months 220105    162   1455      1
16 TanzaniaChild2 TANZANIA     18-24 months  49974     25    960      1
# A tibble: 5 x 4
  agecat       inc.case    ptar cruderate
  <fct>           <dbl>   <dbl>     <dbl>
1 0-6 months       1363 409374.  0.00333 
2 6-12 months       654 490944.  0.00133 
3 12-18 months      614 451892.  0.00136 
4 18-24 months      454 432024   0.00105 
5 <NA>              426 903552.  0.000471
`summarise()` has grouped output by 'studyid', 'country'. You can override using the `.groups` argument.
# A tibble: 39 x 7
# Groups:   studyid, country [10]
   studyid           country    agecat         ptar ncase nchild nstudy
   <chr>             <chr>      <fct>         <dbl> <dbl>  <int>  <int>
 1 CMC-V-BCS-2002    INDIA      0-6 months   45858.   211    368      1
 2 CMC-V-BCS-2002    INDIA      6-12 months  59372.    79    372      1
 3 CMC-V-BCS-2002    INDIA      12-18 months 60975     40    373      1
 4 CMC-V-BCS-2002    INDIA      18-24 months 63136.    29    373      1
 5 CMIN Bangladesh93 BANGLADESH 0-6 months   36217     57    272      1
 6 CMIN Bangladesh93 BANGLADESH 6-12 months  42664.    66    252      1
 7 CMIN Bangladesh93 BANGLADESH 12-18 months 39770.    52    250      1
 8 CMIN Bangladesh93 BANGLADESH 18-24 months 40245     54    247      1
 9 EE                PAKISTAN   0-6 months   50660.   136    380      1
10 EE                PAKISTAN   6-12 months  59166.    69    374      1
# … with 29 more rows
# A tibble: 5 x 4
  agecat       inc.case    ptar cruderate
  <fct>           <dbl>   <dbl>     <dbl>
1 0-6 months         49 208541  0.000235 
2 6-12 months        37 241226. 0.000153 
3 12-18 months       23 178037  0.000129 
4 18-24 months       15 142267  0.000105 
5 <NA>               11 273586. 0.0000402
`summarise()` has grouped output by 'studyid', 'country'. You can override using the `.groups` argument.
# A tibble: 23 x 7
# Groups:   studyid, country [6]
   studyid     country agecat         ptar ncase nchild nstudy
   <chr>       <chr>   <fct>         <dbl> <dbl>  <int>  <int>
 1 CMIN Peru89 PERU    0-6 months   29304.     4    209      1
 2 CMIN Peru89 PERU    6-12 months  32760.     2    195      1
 3 CMIN Peru89 PERU    12-18 months 23252      1    148      1
 4 CMIN Peru89 PERU    18-24 months 12751      0     87      1
 5 CMIN Peru95 PERU    0-6 months   32520.     5    224      1
 6 CMIN Peru95 PERU    6-12 months  37987      2    223      1
 7 CMIN Peru95 PERU    12-18 months 31418.     1    180      1
 8 CMIN Peru95 PERU    18-24 months 26240.     2    159      1
 9 CONTENT     PERU    0-6 months   35048.     4    215      1
10 CONTENT     PERU    6-12 months  40858      0    215      1
# … with 13 more rows
…
+ )
> 
> 
> #Incidence rate - 60 days
> ir.data <- summary.ir(d)
# A tibble: 5 x 4
  agecat       inc.case     ptar cruderate
  <fct>           <dbl>    <dbl>     <dbl>
1 0-6 months       2427 1258466   0.00193 
2 6-12 months      1326 1438328   0.000922
3 12-18 months      987 1223366.  0.000807
4 18-24 months      710 1081632.  0.000656
5 <NA>              548 1702955   0.000322
`summarise()` has grouped output by 'studyid', 'country'. You can override using the `.groups` argument.
# A tibble: 78 x 7
# Groups:   studyid, country [20]
   studyid           country    agecat         ptar ncase nchild nstudy
   <chr>             <chr>      <fct>         <dbl> <dbl>  <int>  <int>
 1 CMC-V-BCS-2002    INDIA      0-6 months   39740    201    368      1
 2 CMC-V-BCS-2002    INDIA      6-12 months  54754     66    372      1
 3 CMC-V-BCS-2002    INDIA      12-18 months 58134.    34    373      1
 4 CMC-V-BCS-2002    INDIA      18-24 months 61138.    23    373      1
 5 CMIN Bangladesh93 BANGLADESH 0-6 months   35058.    52    272      1
 6 CMIN Bangladesh93 BANGLADESH 6-12 months  40490.    56    252      1
 7 CMIN Bangladesh93 BANGLADESH 12-18 months 36807     43    250      1
 8 CMIN Bangladesh93 BANGLADESH 18-24 months 37222.    39    247      1
 9 CMIN Peru89       PERU       0-6 months   29156.     4    209      1
10 CMIN Peru89       PERU       6-12 months  32658      2    195      1
# … with 68 more rows
…
12 MAL-ED         TANZANIA     18-24 months  40216.    10    228      1
13 TanzaniaChild2 TANZANIA     0-6 months   312924.   340   2396      1
14 TanzaniaChild2 TANZANIA     6-12 months  288492.   210   1996      1
15 TanzaniaChild2 TANZANIA     12-18 months 212946.   139   1455      1
16 TanzaniaChild2 TANZANIA     18-24 months  48451     24    960      1
# A tibble: 5 x 4
  agecat       inc.case    ptar cruderate
  <fct>           <dbl>   <dbl>     <dbl>
1 0-6 months       1264 376310.  0.00336 
2 6-12 months       553 465527   0.00119 
3 12-18 months      480 423556.  0.00113 
4 18-24 months      353 406512.  0.000868
5 <NA>              358 886815   0.000404
`summarise()` has grouped output by 'studyid', 'country'. You can override using the `.groups` argument.
# A tibble: 39 x 7
# Groups:   studyid, country [10]
   studyid           country    agecat         ptar ncase nchild nstudy
   <chr>             <chr>      <fct>         <dbl> <dbl>  <int>  <int>
 1 CMC-V-BCS-2002    INDIA      0-6 months   39740    201    368      1
 2 CMC-V-BCS-2002    INDIA      6-12 months  54754     66    372      1
 3 CMC-V-BCS-2002    INDIA      12-18 months 58134.    34    373      1
 4 CMC-V-BCS-2002    INDIA      18-24 months 61138.    23    373      1
 5 CMIN Bangladesh93 BANGLADESH 0-6 months   35058.    52    272      1
 6 CMIN Bangladesh93 BANGLADESH 6-12 months  40490.    56    252      1
 7 CMIN Bangladesh93 BANGLADESH 12-18 months 36807     43    250      1
 8 CMIN Bangladesh93 BANGLADESH 18-24 months 37222.    39    247      1
 9 EE                PAKISTAN   0-6 months   47991    127    380      1
10 EE                PAKISTAN   6-12 months  55494.    62    374      1
# … with 29 more rows
# A tibble: 5 x 4
  agecat       inc.case    ptar cruderate
  <fct>           <dbl>   <dbl>     <dbl>
1 0-6 months         49 207526. 0.000236 
2 6-12 months        35 240255  0.000146 
3 12-18 months       22 176921  0.000124 
4 18-24 months       15 141577  0.000106 
5 <NA>               10 273339  0.0000366
`summarise()` has grouped output by 'studyid', 'country'. You can override using the `.groups` argument.
# A tibble: 23 x 7
# Groups:   studyid, country [6]
   studyid     country agecat         ptar ncase nchild nstudy
   <chr>       <chr>   <fct>         <dbl> <dbl>  <int>  <int>
 1 CMIN Peru89 PERU    0-6 months   29156.     4    209      1
 2 CMIN Peru89 PERU    6-12 months  32658      2    195      1
 3 CMIN Peru89 PERU    12-18 months 23220.     1    148      1
 4 CMIN Peru89 PERU    18-24 months 12751      0     87      1
 5 CMIN Peru95 PERU    0-6 months   32457      5    224      1
 6 CMIN Peru95 PERU    6-12 months  37916.     2    223      1
 7 CMIN Peru95 PERU    12-18 months 31373      1    180      1
 8 CMIN Peru95 PERU    18-24 months 26138      2    159      1
 9 CONTENT     PERU    0-6 months   34982.     4    215      1
10 CONTENT     PERU    6-12 months  40798.     0    215      1
# … with 13 more rows
…
+ )
> 
> 
> #Incidence rate - 90 days
> ir.data <- summary.ir(d90)
# A tibble: 5 x 4
  agecat       inc.case     ptar cruderate
  <fct>           <dbl>    <dbl>     <dbl>
1 0-6 months       2363 1224046.  0.00193 
2 6-12 months      1217 1409972.  0.000863
3 12-18 months      874 1188997   0.000735
4 18-24 months      613 1055910.  0.000581
5 <NA>              493 1689890.  0.000292
`summarise()` has grouped output by 'studyid', 'country'. You can override using the `.groups` argument.
# A tibble: 78 x 7
# Groups:   studyid, country [20]
   studyid           country    agecat         ptar ncase nchild nstudy
   <chr>             <chr>      <fct>         <dbl> <dbl>  <int>  <int>
 1 CMC-V-BCS-2002    INDIA      0-6 months   36912.   195    368      1
 2 CMC-V-BCS-2002    INDIA      6-12 months  52088.    56    372      1
 3 CMC-V-BCS-2002    INDIA      12-18 months 56337     29    373      1
 4 CMC-V-BCS-2002    INDIA      18-24 months 59864.    21    373      1
 5 CMIN Bangladesh93 BANGLADESH 0-6 months   34702.    51    272      1
 6 CMIN Bangladesh93 BANGLADESH 6-12 months  39206.    50    252      1
 7 CMIN Bangladesh93 BANGLADESH 12-18 months 35142.    33    250      1
 8 CMIN Bangladesh93 BANGLADESH 18-24 months 35950.    29    247      1
 9 CMIN Peru89       PERU       0-6 months   29126.     4    209      1
10 CMIN Peru89       PERU       6-12 months  32500.     2    195      1
# … with 68 more rows
…
12 MAL-ED         TANZANIA     18-24 months  39996.     9    228      1
13 TanzaniaChild2 TANZANIA     0-6 months   309964.   337   2396      1
14 TanzaniaChild2 TANZANIA     6-12 months  283081    192   1996      1
15 TanzaniaChild2 TANZANIA     12-18 months 208680.   126   1455      1
16 TanzaniaChild2 TANZANIA     18-24 months  47244.    22    960      1
# A tibble: 5 x 4
  agecat       inc.case    ptar cruderate
  <fct>           <dbl>   <dbl>     <dbl>
1 0-6 months       1232 359090.  0.00343 
2 6-12 months       499 451717   0.00110 
3 12-18 months      412 409844.  0.00101 
4 18-24 months      289 393477   0.000734
5 <NA>              313 877760   0.000357
`summarise()` has grouped output by 'studyid', 'country'. You can override using the `.groups` argument.
# A tibble: 39 x 7
# Groups:   studyid, country [10]
   studyid           country    agecat         ptar ncase nchild nstudy
   <chr>             <chr>      <fct>         <dbl> <dbl>  <int>  <int>
 1 CMC-V-BCS-2002    INDIA      0-6 months   36912.   195    368      1
 2 CMC-V-BCS-2002    INDIA      6-12 months  52088.    56    372      1
 3 CMC-V-BCS-2002    INDIA      12-18 months 56337     29    373      1
 4 CMC-V-BCS-2002    INDIA      18-24 months 59864.    21    373      1
 5 CMIN Bangladesh93 BANGLADESH 0-6 months   34702.    51    272      1
 6 CMIN Bangladesh93 BANGLADESH 6-12 months  39206.    50    252      1
 7 CMIN Bangladesh93 BANGLADESH 12-18 months 35142.    33    250      1
 8 CMIN Bangladesh93 BANGLADESH 18-24 months 35950.    29    247      1
 9 EE                PAKISTAN   0-6 months   46582    126    380      1
10 EE                PAKISTAN   6-12 months  53815     52    374      1
# … with 29 more rows
# A tibble: 5 x 4
  agecat       inc.case    ptar cruderate
  <fct>           <dbl>   <dbl>     <dbl>
1 0-6 months         49 206819  0.000237 
2 6-12 months        31 239492. 0.000129 
3 12-18 months       21 176487  0.000119 
4 18-24 months       10 141160. 0.0000708
5 <NA>                9 273146. 0.0000329
`summarise()` has grouped output by 'studyid', 'country'. You can override using the `.groups` argument.
# A tibble: 23 x 7
# Groups:   studyid, country [6]
   studyid     country agecat         ptar ncase nchild nstudy
   <chr>       <chr>   <fct>         <dbl> <dbl>  <int>  <int>
 1 CMIN Peru89 PERU    0-6 months   29126.     4    209      1
 2 CMIN Peru89 PERU    6-12 months  32500.     2    195      1
 3 CMIN Peru89 PERU    12-18 months 23220.     1    148      1
 4 CMIN Peru89 PERU    18-24 months 12751      0     87      1
 5 CMIN Peru95 PERU    0-6 months   32384.     5    224      1
 6 CMIN Peru95 PERU    6-12 months  37747      2    223      1
 7 CMIN Peru95 PERU    12-18 months 31373      1    180      1
 8 CMIN Peru95 PERU    18-24 months 26108      1    159      1
 9 CONTENT     PERU    0-6 months   34924      4    215      1
10 CONTENT     PERU    6-12 months  40746      0    215      1
# … with 13 more rows
…
